Semaine 2 - Machine Learning – SFC6006
…
lm_fit %>% glance()

# A tibble: 1 × 12
  r.squared adj.r.squared  sigma statistic  p.value    df  logLik    AIC    BIC
      <dbl>         <dbl>  <dbl>     <dbl>    <dbl> <dbl>   <dbl>  <dbl>  <dbl>
1     0.163         0.162 73331.      213. 2.38e-85     2 -27728. 55465. 55487.
# ℹ 3 more variables: deviance <dbl>, df.residual <int>, nobs <int>

Faire des prédictions

L’idée de cette étape est d’appliquer le modèle entraîné sur des données, en générale celles de tests. De base, cela se fait via la fonction predict:

lm_fit %>% predict(new_data = ames_test)

# A tibble: 733 × 1
     .pred
     <dbl>
 1 213054.
 2 202464.
 3 196577.
 4 227633.
 5 225029.
 6 224060.
 7 221036.
 8 217686.
 9 218026.
10 215263.
# ℹ 723 more rows
…
Call:
stats::lm(formula = ..y ~ ., data = data)

Coefficients:
(Intercept)    Longitude     Latitude  
 -133779792      -823798      1351690  

Il est également possible de l’utiliser pour faire nos prédiction:

lm_wf_pred <- lm_wf_fit %>%
  predict(new_data = ames_test)

lm_wf_pred

# A tibble: 733 × 1
     .pred
     <dbl>
 1 213054.
 2 202464.
 3 196577.
 4 227633.
 5 225029.
 6 224060.
 7 221036.
 8 217686.
 9 218026.
10 215263.
# ℹ 723 more rows
…
# Ici le modèle extrait est un "lm", donc nous pouvons appeler tidy() en suivant:
lm_wf_fit %>% extract_fit_engine() %>% tidy()

# A tibble: 29 × 5
   term                              estimate std.error statistic   p.value
   <chr>                                <dbl>     <dbl>     <dbl>     <dbl>
 1 (Intercept)                     -2268637.   118094.   -19.2    4.45e- 76
 2 Gr_Liv_Area                       257032.     7297.    35.2    2.60e-215
 3 Year_Built                           827.       59.6   13.9    4.99e- 42
 4 Neighborhood_College_Creek          6420.     4216.     1.52   1.28e-  1
 5 Neighborhood_Old_Town               1151.     4321.     0.266  7.90e-  1
 6 Neighborhood_Edwards               -8436.     3940.    -2.14   3.24e-  2
 7 Neighborhood_Somerset              35718.     4911.     7.27   4.87e- 13
 8 Neighborhood_Northridge_Heights    97713.     5188.    18.8    2.04e- 73
 9 Neighborhood_Gilbert              -14701.     4795.    -3.07   2.19e-  3
10 Neighborhood_Sawyer                   53.8    4455.     0.0121 9.90e-  1
# ℹ 19 more rows
…
