Semaine3 - Machine leanring - Suite – SFC6006
…
Pour obtenir les prédictions moyennes:

rf_pred_resample <- collect_predictions(rf_fit_resample, summarize = TRUE)

rf_pred_resample

# A tibble: 2,197 × 4
    .pred Sale_Price  .row .config        
    <dbl>      <int> <int> <chr>          
 1 89207.      13100  1769 pre0_mod0_post0
 2 73645.      34900    43 pre0_mod0_post0
 3 82985.      35000  1680 pre0_mod0_post0
 4 63806.      35311  1513 pre0_mod0_post0
 5 76095.      39300  1416 pre0_mod0_post0
 6 99736.      40000  1840 pre0_mod0_post0
 7 69006.      46500  1399 pre0_mod0_post0
 8 85804.      50138  1279 pre0_mod0_post0
 9 64203.      51689   709 pre0_mod0_post0
10 81328.      52000  2047 pre0_mod0_post0
# ℹ 2,187 more rows
…
Plusieurs fonctions sont à disposition pour accéder aux résultats.

rf_tune %>% collect_metrics()

# A tibble: 27 × 8
    mtry min_n .metric .estimator   mean     n  std_err .config        
   <int> <int> <chr>   <chr>       <dbl> <int>    <dbl> <chr>          
 1     1     2 mae     standard   0.292      3 0.00935  pre0_mod1_post0
 2     1     2 rmse    standard   0.377      3 0.0115   pre0_mod1_post0
 3     1     2 rsq     standard   0.935      3 0.00244  pre0_mod1_post0
 4     1    21 mae     standard   0.309      3 0.0125   pre0_mod2_post0
 5     1    21 rmse    standard   0.401      3 0.0146   pre0_mod2_post0
 6     1    21 rsq     standard   0.925      3 0.00335  pre0_mod2_post0
 7     1    40 mae     standard   0.324      3 0.00909  pre0_mod3_post0
 8     1    40 rmse    standard   0.420      3 0.0105   pre0_mod3_post0
 9     1    40 rsq     standard   0.917      3 0.00415  pre0_mod3_post0
10    12     2 mae     standard   0.0910     3 0.000759 pre0_mod4_post0
# ℹ 17 more rows
…
• Centering and scaling for: all_numeric_predictors()

• PCA extraction with: all_predictors()

Il est important de prep la recette pour que la pca soit effectivement faite.

iris_pca <- iris_pca_recipe %>% prep()

Nous pouvons obtenir le tableau de données avec les valeurs pour les différentes composantes avec juice().

iris_pca_data <- iris_pca %>% juice()

iris_pca_data

# A tibble: 150 × 5
   Species   PC1     PC2     PC3      PC4
   <fct>   <dbl>   <dbl>   <dbl>    <dbl>
 1 setosa  -2.26 -0.478   0.127   0.0241 
 2 setosa  -2.07  0.672   0.234   0.103  
 3 setosa  -2.36  0.341  -0.0441  0.0283 
 4 setosa  -2.29  0.595  -0.0910 -0.0657 
 5 setosa  -2.38 -0.645  -0.0157 -0.0358 
 6 setosa  -2.07 -1.48   -0.0269  0.00659
 7 setosa  -2.44 -0.0475 -0.334  -0.0367 
 8 setosa  -2.23 -0.222   0.0884 -0.0245 
 9 setosa  -2.33  1.11   -0.145  -0.0268 
10 setosa  -2.18  0.467   0.253  -0.0398 
# ℹ 140 more rows
…
